SIR - введение в базовое R
…
Tidyverse

pipe - Ctr + Shift + M

pen.ex <- read_xlsx('pen.xlsx')
# pen.ex <- readxl::read_xlsx('pen.xlsx')
pen.ex

## # A tibble: 344 × 8
##    species island    bill_length_mm bill_depth_mm flipper_length_mm body_mass_g
##    <chr>   <chr>              <dbl>         <dbl>             <dbl>       <dbl>
##  1 Adelie  Torgersen           39.1          18.7               181        3750
##  2 Adelie  Torgersen           39.5          17.4               186        3800
##  3 Adelie  Torgersen           40.3          18                 195        3250
##  4 Adelie  Torgersen           NA            NA                  NA          NA
##  5 Adelie  Torgersen           36.7          19.3               193        3450
##  6 Adelie  Torgersen           39.3          20.6               190        3650
##  7 Adelie  Torgersen           38.9          17.8               181        3625
##  8 Adelie  Torgersen           39.2          19.6               195        4675
##  9 Adelie  Torgersen           34.1          18.1               193        3475
## 10 Adelie  Torgersen           42            20.2               190        4250
## # ℹ 334 more rows
## # ℹ 2 more variables: sex <chr>, year <dbl>
…
pen.no.na <- na.omit(pen)

pen.ex.na <- pen.ex %>% 
  drop_na()

pen.no.na[pen.no.na\(species ==
'Adelie' & pen.no.na\)sex == ‘male’,]

pen.ex.na %>% 
  filter(species == 'Adelie' & sex == 'male') 

## # A tibble: 73 × 8
##    species island    bill_length_mm bill_depth_mm flipper_length_mm body_mass_g
##    <chr>   <chr>              <dbl>         <dbl>             <dbl>       <dbl>
##  1 Adelie  Torgersen           39.1          18.7               181        3750
##  2 Adelie  Torgersen           39.3          20.6               190        3650
##  3 Adelie  Torgersen           39.2          19.6               195        4675
##  4 Adelie  Torgersen           38.6          21.2               191        3800
##  5 Adelie  Torgersen           34.6          21.1               198        4400
##  6 Adelie  Torgersen           42.5          20.7               197        4500
##  7 Adelie  Torgersen           46            21.5               194        4200
##  8 Adelie  Biscoe              37.7          18.7               180        3600
##  9 Adelie  Biscoe              38.2          18.1               185        3950
## 10 Adelie  Biscoe              38.8          17.2               180        3800
## # ℹ 63 more rows
## # ℹ 2 more variables: sex <chr>, year <dbl>

Семейство mutate

добавляем новую колонку - теперь масса пингвинов в пудах

pen.ex.na %>% 
  mutate(body_mass_pood = pood_transformer(body_mass_g)) 

## # A tibble: 333 × 9
##    species island    bill_length_mm bill_depth_mm flipper_length_mm body_mass_g
##    <chr>   <chr>              <dbl>         <dbl>             <dbl>       <dbl>
##  1 Adelie  Torgersen           39.1          18.7               181        3750
##  2 Adelie  Torgersen           39.5          17.4               186        3800
##  3 Adelie  Torgersen           40.3          18                 195        3250
##  4 Adelie  Torgersen           36.7          19.3               193        3450
##  5 Adelie  Torgersen           39.3          20.6               190        3650
##  6 Adelie  Torgersen           38.9          17.8               181        3625
##  7 Adelie  Torgersen           39.2          19.6               195        4675
##  8 Adelie  Torgersen           41.1          17.6               182        3200
##  9 Adelie  Torgersen           38.6          21.2               191        3800
## 10 Adelie  Torgersen           34.6          21.1               198        4400
## # ℹ 323 more rows
## # ℹ 3 more variables: sex <chr>, year <dbl>, body_mass_pood <dbl>
…
